{"name":"getAllTheUsersTestClass","id":"TestCasesPackage.GetTheUsers:getAllTheUsersTestClass","testCaseName":"TestCasesPackage.GetTheUsers","testSteps":[{"number":1,"description":"Get all the users from API","duration":344,"startTime":"2022-12-27T03:36:05.944-06:00[America/Chicago]","result":"SUCCESS","precondition":false,"level":0,"children":[{"number":2,"description":"GET https://reqres.in/api/users\r\r","duration":0,"startTime":"2022-12-27T03:36:06.267-06:00[America/Chicago]","result":"SUCCESS","restQuery":{"method":"GET","path":"https://reqres.in/api/users\r\r","content":"\r","contentType":"null","requestHeaders":"Accept\u003d*/*\r\r","requestCookies":"\r\r","responseHeaders":"Date: Tue, 27 Dec 2022 09:36:06 GMT\nContent-Type: application/json; charset\u003dutf-8\nTransfer-Encoding: chunked\nConnection: keep-alive\nX-Powered-By: Express\nAccess-Control-Allow-Origin: *\nEtag: W/\"3e4-2RLXvr5wTg9YQ6aH95CkYoFNuO8\"\nVia: 1.1 vegur\nCache-Control: max-age\u003d14400\nCF-Cache-Status: HIT\nAge: 5964\nReport-To: {\"endpoints\":[{\"url\":\"https:\\/\\/a.nel.cloudflare.com\\/report\\/v3?s\u003drPpVcaPoc%2FhAypLXQ3TUMX8fLsNNIMaBllqWJfvoPD6%2B%2FUT67f9IeKQ8SRpRxS9nCeaCVGOOBg3G0BPwJJXwP1HYiWsv2uR5UwTPwstXxaUsufg4JPtnAFxC2Q%3D%3D\"}],\"group\":\"cf-nel\",\"max_age\":604800}\nNEL: {\"success_fraction\":0,\"report_to\":\"cf-nel\",\"max_age\":604800}\nVary: Accept-Encoding\nServer: cloudflare\nCF-RAY: 780111e68890f7c4-BNA\nContent-Encoding: gzip\r","responseCookies":"\r","responseBody":"{\n    \"page\": 1,\n    \"per_page\": 6,\n    \"total\": 12,\n    \"total_pages\": 2,\n    \"data\": [\n        {\n            \"id\": 1,\n            \"email\": \"george.bluth@reqres.in\",\n            \"first_name\": \"George\",\n            \"last_name\": \"Bluth\",\n            \"avatar\": \"https://reqres.in/img/faces/1-image.jpg\"\n        },\n        {\n            \"id\": 2,\n            \"email\": \"janet.weaver@reqres.in\",\n            \"first_name\": \"Janet\",\n            \"last_name\": \"Weaver\",\n            \"avatar\": \"https://reqres.in/img/faces/2-image.jpg\"\n        },\n        {\n            \"id\": 3,\n            \"email\": \"emma.wong@reqres.in\",\n            \"first_name\": \"Emma\",\n            \"last_name\": \"Wong\",\n            \"avatar\": \"https://reqres.in/img/faces/3-image.jpg\"\n        },\n        {\n            \"id\": 4,\n            \"email\": \"eve.holt@reqres.in\",\n            \"first_name\": \"Eve\",\n            \"last_name\": \"Holt\",\n            \"avatar\": \"https://reqres.in/img/faces/4-image.jpg\"\n        },\n        {\n            \"id\": 5,\n            \"email\": \"charles.morris@reqres.in\",\n            \"first_name\": \"Charles\",\n            \"last_name\": \"Morris\",\n            \"avatar\": \"https://reqres.in/img/faces/5-image.jpg\"\n        },\n        {\n            \"id\": 6,\n            \"email\": \"tracey.ramos@reqres.in\",\n            \"first_name\": \"Tracey\",\n            \"last_name\": \"Ramos\",\n            \"avatar\": \"https://reqres.in/img/faces/6-image.jpg\"\n        }\n    ],\n    \"support\": {\n        \"url\": \"https://reqres.in/#support-heading\",\n        \"text\": \"To keep ReqRes free, contributions towards server costs are appreciated!\"\n    }\n}","statusCode":200},"precondition":false,"level":1}]}],"userStory":{"id":"TestCasesPackage.GetTheUsers","storyName":"Get the users","storyClassName":"TestCasesPackage.GetTheUsers","path":"TestCasesPackage","type":"story"},"featureTag":{"name":"Test cases package/Get the users","type":"story","displayName":"Test cases package/Get the users"},"title":"Get all the users test class","tags":[{"name":"Test cases package/Get the users","type":"story","displayName":"Test cases package/Get the users"}],"startTime":"2022-12-27T03:36:05.938-06:00[America/Chicago]","duration":393,"projectKey":"","isManualTestingUpToDate":false,"manual":false,"testSource":"JUnit","result":"SUCCESS"}